…
``` r
combined_2018_2019 = rbind(wheel_2018, wheel_2019)
combined_2018_2019_relocated = relocate(combined_2018_2019, year)
combined_2018_2019_relocated
```

    ## # A tibble: 24 × 3
    ##     year month     total
    ##    <dbl> <chr>     <dbl>
    ##  1  2018 January    0.94
    ##  2  2018 February   4.8 
    ##  3  2018 March      2.69
    ##  4  2018 April      4.69
    ##  5  2018 May        9.27
    ##  6  2018 June       4.77
    ##  7  2018 July      10.2 
    ##  8  2018 August     6.45
    ##  9  2018 September 10.5 
    ## 10  2018 October    2.12
    ## # … with 14 more rows
…
    ## ── Column specification ────────────────────────────────────────────────────────
    ## Delimiter: ","
    ## dbl  (8): prez_gop, gov_gop, sen_gop, rep_gop, prez_dem, gov_dem, sen_dem, r...
    ## date (1): mon

    ## 
    ## ℹ Use `spec()` to retrieve the full column specification for this data.
    ## ℹ Specify the column types or set `show_col_types = FALSE` to quiet this message.

``` r
pols_month_df
```

    ## # A tibble: 822 × 9
    ##     year month     president gov_gop sen_gop rep_gop gov_dem sen_dem rep_dem
    ##    <dbl> <chr>     <fct>       <dbl>   <dbl>   <dbl>   <dbl>   <dbl>   <dbl>
    ##  1  1947 January   dem            23      51     253      23      45     198
    ##  2  1947 February  dem            23      51     253      23      45     198
    ##  3  1947 March     dem            23      51     253      23      45     198
    ##  4  1947 April     dem            23      51     253      23      45     198
    ##  5  1947 May       dem            23      51     253      23      45     198
    ##  6  1947 June      dem            23      51     253      23      45     198
    ##  7  1947 July      dem            23      51     253      23      45     198
    ##  8  1947 August    dem            23      51     253      23      45     198
    ##  9  1947 September dem            23      51     253      23      45     198
    ## 10  1947 October   dem            23      51     253      23      45     198
    ## # … with 812 more rows
…
    ## ── Column specification ────────────────────────────────────────────────────────
    ## Delimiter: ","
    ## chr (1): date
    ## dbl (1): close

    ## 
    ## ℹ Use `spec()` to retrieve the full column specification for this data.
    ## ℹ Specify the column types or set `show_col_types = FALSE` to quiet this message.

``` r
snp_data_df  
```

    ## # A tibble: 787 × 3
    ##     year month    close
    ##    <dbl> <chr>    <dbl>
    ##  1  2015 July     2080.
    ##  2  2015 June     2063.
    ##  3  2015 May      2107.
    ##  4  2015 April    2086.
    ##  5  2015 March    2068.
    ##  6  2015 February 2104.
    ##  7  2015 January  1995.
    ##  8  2014 December 2059.
    ##  9  2014 November 2068.
    ## 10  2014 October  2018.
    ## # … with 777 more rows
…
    ## Rows: 68 Columns: 13

    ## ── Column specification ────────────────────────────────────────────────────────
    ## Delimiter: ","
    ## dbl (13): Year, Jan, Feb, Mar, Apr, May, Jun, Jul, Aug, Sep, Oct, Nov, Dec

    ## 
    ## ℹ Use `spec()` to retrieve the full column specification for this data.
    ## ℹ Specify the column types or set `show_col_types = FALSE` to quiet this message.

``` r
unemployment_df  
```

    ## # A tibble: 816 × 3
    ##     year month     unemployment_rate
    ##    <dbl> <chr>                 <dbl>
    ##  1  1948 January                 3.4
    ##  2  1948 February                3.8
    ##  3  1948 March                   4  
    ##  4  1948 April                   3.9
    ##  5  1948 May                     3.5
    ##  6  1948 June                    3.6
    ##  7  1948 July                    3.6
    ##  8  1948 August                  3.9
    ##  9  1948 September               3.8
    ## 10  1948 October                 3.7
    ## # … with 806 more rows
…
    ## Joining, by = c("year", "month")

``` r
final_result = left_join(result1, unemployment_df)
```

    ## Joining, by = c("year", "month")

``` r
final_result
```

    ## # A tibble: 822 × 11
    ##     year month   president gov_gop sen_gop rep_gop gov_dem sen_dem rep_dem close
    ##    <dbl> <chr>   <fct>       <dbl>   <dbl>   <dbl>   <dbl>   <dbl>   <dbl> <dbl>
    ##  1  1947 January dem            23      51     253      23      45     198    NA
    ##  2  1947 Februa… dem            23      51     253      23      45     198    NA
    ##  3  1947 March   dem            23      51     253      23      45     198    NA
    ##  4  1947 April   dem            23      51     253      23      45     198    NA
    ##  5  1947 May     dem            23      51     253      23      45     198    NA
    ##  6  1947 June    dem            23      51     253      23      45     198    NA
    ##  7  1947 July    dem            23      51     253      23      45     198    NA
    ##  8  1947 August  dem            23      51     253      23      45     198    NA
    ##  9  1947 Septem… dem            23      51     253      23      45     198    NA
    ## 10  1947 October dem            23      51     253      23      45     198    NA
    ## # … with 812 more rows, and 1 more variable: unemployment_rate <dbl>
…
    ## ── Column specification ────────────────────────────────────────────────────────
    ## Delimiter: ","
    ## chr (3): Gender, Ethnicity, Child's First Name
    ## dbl (3): Year of Birth, Count, Rank

    ## 
    ## ℹ Use `spec()` to retrieve the full column specification for this data.
    ## ℹ Specify the column types or set `show_col_types = FALSE` to quiet this message.

``` r
baby_name_df
```

    ## # A tibble: 12,181 × 6
    ##    year_of_birth gender ethnicity                  childs_first_name count  rank
    ##            <dbl> <chr>  <chr>                      <chr>             <dbl> <dbl>
    ##  1          2016 FEMALE ASIAN AND PACIFIC ISLANDER Olivia              172     1
    ##  2          2016 FEMALE BLACK NON HISPANIC         Ava                 109     1
    ##  3          2016 FEMALE HISPANIC                   Isabella            276     1
    ##  4          2016 FEMALE WHITE NON HISPANIC         Olivia              230     1
    ##  5          2016 MALE   ASIAN AND PACIFIC ISLANDER Ethan               193     1
    ##  6          2016 MALE   BLACK NON HISPANIC         Noah                148     1
    ##  7          2016 MALE   HISPANIC                   Liam                387     1
    ##  8          2016 MALE   WHITE NON HISPANIC         Joseph              261     1
    ##  9          2015 FEMALE ASIAN AND PACIFIC ISLANDER Olivia              188     1
    ## 10          2015 FEMALE BLACK NON HISPANIC         Madison             128     1
    ## # … with 12,171 more rows
…
